{
    "projects": [
        {
            "name": "30 seconds",
            "defAutomatic": true,
            "defPrepare": false,
            "sets": 1,
            "initPrep": true,
            "timers": [
                {
                    "name": "go",
                    "automatic": true,
                    "countdownValue": 30,
                    "prepare": false
                }
            ]
        },
        {
            "name": "30 seconds (15+15)",
            "defAutomatic": true,
            "defPrepare": false,
            "sets": 1,
            "initPrep": true,
            "timers": [
                {
                    "name": "go",
                    "automatic": true,
                    "countdownValue": 15,
                    "prepare": false
                },
                {
                    "name": "go",
                    "automatic": true,
                    "countdownValue": 15,
                    "prepare": false
                }
            ]
        },
        {
            "name": "1 minute",
            "defAutomatic": true,
            "defPrepare": false,
            "sets": 1,
            "initPrep": true,
            "timers": [
                {
                    "name": "go",
                    "automatic": true,
                    "countdownValue": 60,
                    "prepare": false
                }
            ]
        },
        {
            "name": "1 minute (30+30)",
            "defAutomatic": true,
            "defPrepare": false,
            "sets": 1,
            "initPrep": true,
            "timers": [
                {
                    "name": "go",
                    "automatic": true,
                    "countdownValue": 30,
                    "prepare": false
                },
                {
                    "name": "go",
                    "automatic": true,
                    "countdownValue": 30,
                    "prepare": false
                }
            ]
        },
        {
            "name": "2 minutes",
            "defAutomatic": true,
            "defPrepare": false,
            "sets": 1,
            "initPrep": true,
            "timers": [
                {
                    "name": "go",
                    "automatic": true,
                    "countdownValue": 120,
                    "prepare": false
                }
            ]
        },
        {
            "name": "2 minutes (60+60)",
            "defAutomatic": true,
            "defPrepare": false,
            "sets": 1,
            "initPrep": true,
            "timers": [
                {
                    "name": "go",
                    "automatic": true,
                    "countdownValue": 60,
                    "prepare": false
                },
                {
                    "name": "go",
                    "automatic": true,
                    "countdownValue": 60,
                    "prepare": false
                }
            ]
        },
        {
            "name": "3 minutes",
            "defAutomatic": true,
            "defPrepare": false,
            "sets": 1,
            "initPrep": true,
            "timers": [
                {
                    "name": "go",
                    "automatic": true,
                    "countdownValue": 180,
                    "prepare": false
                }
            ]
        },
        {
            "name": "3 minutes (90+90)",
            "defAutomatic": true,
            "defPrepare": false,
            "sets": 1,
            "initPrep": true,
            "timers": [
                {
                    "name": "go",
                    "automatic": true,
                    "countdownValue": 90,
                    "prepare": false
                },
                {
                    "name": "go",
                    "automatic": true,
                    "countdownValue": 90,
                    "prepare": false
                }
            ]
        },
        {
            "name": "5 minutes",
            "defAutomatic": true,
            "defPrepare": false,
            "sets": 1,
            "initPrep": true,
            "timers": [
                {
                    "name": "go",
                    "automatic": true,
                    "countdownValue": 300,
                    "prepare": false
                }
            ]
        },
        {
            "name": "Progression",
            "defAutomatic": true,
            "defPrepare": false,
            "sets": 8,
            "initPrep": false,
            "timers": [
                {
                    "name": "get ready",
                    "automatic": true,
                    "countdownValue": 15,
                    "prepare": false
                },
                {
                    "name": "hold",
                    "automatic": true,
                    "countdownValue": 13,
                    "prepare": false
                },
                {
                    "name": "rest",
                    "automatic": true,
                    "countdownValue": 165,
                    "prepare": false
                }
            ]
        },
        {
            "name": "Progression - half",
            "defAutomatic": true,
            "defPrepare": false,
            "sets": 5,
            "initPrep": false,
            "timers": [
                {
                    "name": "get ready",
                    "automatic": true,
                    "countdownValue": 15,
                    "prepare": false
                },
                {
                    "name": "hold",
                    "automatic": true,
                    "countdownValue": 6,
                    "prepare": false
                },
                {
                    "name": "rest",
                    "automatic": true,
                    "countdownValue": 165,
                    "prepare": false
                }
            ]
        },
        {
            "name": "30s x 6",
            "defAutomatic": true,
            "defPrepare": false,
            "sets": 1,
            "initPrep": true,
            "timers": [
                {
                    "name": "1",
                    "automatic": true,
                    "countdownValue": 30,
                    "prepare": false
                },
                {
                    "name": "2",
                    "automatic": true,
                    "countdownValue": 30,
                    "prepare": false
                },
                {
                    "name": "3",
                    "automatic": true,
                    "countdownValue": 30,
                    "prepare": false
                },
                {
                    "name": "4",
                    "automatic": true,
                    "countdownValue": 30,
                    "prepare": false
                },
                {
                    "name": "5",
                    "automatic": true,
                    "countdownValue": 30,
                    "prepare": false
                },
                {
                    "name": "6",
                    "automatic": true,
                    "countdownValue": 30,
                    "prepare": false
                }
            ]
        },
        {
            "name": "20s x 6 - 5 sets",
            "defAutomatic": true,
            "defPrepare": false,
            "sets": 5,
            "initPrep": false,
            "timers": [
                {
                    "name": "1",
                    "automatic": true,
                    "countdownValue": 20,
                    "prepare": false
                },
                {
                    "name": "2",
                    "automatic": true,
                    "countdownValue": 20,
                    "prepare": false
                },
                {
                    "name": "3",
                    "automatic": true,
                    "countdownValue": 20,
                    "prepare": false
                },
                {
                    "name": "4",
                    "automatic": true,
                    "countdownValue": 20,
                    "prepare": false
                },
                {
                    "name": "5",
                    "automatic": true,
                    "countdownValue": 20,
                    "prepare": false
                },
                {
                    "name": "6",
                    "automatic": true,
                    "countdownValue": 20,
                    "prepare": false
                }
            ]
        }
    ]
}
